…
``` r
data("instacart")
instacart =
  instacart|>
  as_tibble()
instacart|>
  count(aisle) |>
  arrange(desc(n))
```

    ## # A tibble: 134 × 2
    ##    aisle                              n
    ##    <chr>                          <int>
    ##  1 fresh vegetables              150609
    ##  2 fresh fruits                  150473
    ##  3 packaged vegetables fruits     78493
    ##  4 yogurt                         55240
    ##  5 packaged cheese                41699
    ##  6 water seltzer sparkling water  36617
    ##  7 milk                           32644
    ##  8 chips pretzels                 31269
    ##  9 soy lactosefree                26240
    ## 10 bread                          23635
    ## # ℹ 124 more rows
…
``` r
brfss_smart |>
  filter(year == 2002)|>
  group_by(state)|>
  summarize(n_locations = n_distinct(location))|>
  arrange(desc(n_locations))
```

    ## # A tibble: 49 × 2
    ##    state n_locations
    ##    <chr>       <int>
    ##  1 PA             10
    ##  2 MA              8
    ##  3 NJ              8
    ##  4 CT              7
    ##  5 FL              7
    ##  6 NC              7
    ##  7 MD              6
    ##  8 NH              5
    ##  9 NY              5
    ## 10 UT              5
    ## # ℹ 39 more rows

``` r
brfss_smart |>
  filter(year == 2010)|>
  group_by(state)|>
  summarize(n_locations = n_distinct(location))|>
  arrange(desc(n_locations))
```

    ## # A tibble: 49 × 2
    ##    state n_locations
    ##    <chr>       <int>
    ##  1 FL             41
    ##  2 NJ             19
    ##  3 TX             16
    ##  4 CA             12
    ##  5 MD             12
    ##  6 NC             12
    ##  7 NE             10
    ##  8 WA             10
    ##  9 MA              9
    ## 10 NY              9
    ## # ℹ 39 more rows
…
